CPU_project/CPU.sim/sim_1/behav/xsim/my.vcd
$date
   Wed Nov 27 19:42:53 2019
$end
$version
  2018.2
$end
$timescale
  1ps
$end
$scope module testbench $end
$var reg 1 ! clk $end
$var reg 1 " rst $end
$scope module top $end
$var wire 1 # EXCLK $end
$var wire 1 $ btnC $end
$var wire 1 % Tx $end
$var wire 1 & Rx $end
$var wire 1 ' led $end
$var reg 1 ( rst $end
$var reg 1 ) rst_delay $end
$var wire 1 * clk $end
$var wire 8 + cpumc_din [7:0] $end
$var wire 32 , cpumc_a [31:0] $end
$var wire 1 - cpumc_wr $end
$var wire 1 . ram_en $end
$var wire 17 / ram_a [16:0] $end
$var wire 8 0 ram_dout [7:0] $end
$var wire 32 1 cpu_ram_a [31:0] $end
$var wire 1 2 cpu_ram_wr $end
$var wire 8 3 cpu_ram_din [7:0] $end
$var wire 8 4 cpu_ram_dout [7:0] $end
$var wire 1 5 cpu_rdy $end
$var wire 32 6 cpu_dbgreg_dout [31:0] $end
$var wire 1 7 hci_active_out $end
$var wire 8 8 hci_ram_din [7:0] $end
$var wire 8 9 hci_ram_dout [7:0] $end
$var wire 17 : hci_ram_a [16:0] $end
$var wire 1 ; hci_ram_wr $end
$var wire 1 < hci_io_en $end
$var wire 3 = hci_io_sel [2:0] $end
$var wire 8 > hci_io_din [7:0] $end
$var wire 8 ? hci_io_dout [7:0] $end
$var wire 1 @ hci_io_wr $end
$var wire 1 A hci_active $end
$var parameter 32 B SIM [31:0] $end
$var parameter 32 C SYS_CLK_FREQ [31:0] $end
$var parameter 32 D UART_BAUD_RATE [31:0] $end
$var parameter 32 E RAM_ADDR_WIDTH [31:0] $end
$scope module ram0 $end
$var wire 1 * clk_in $end
$var wire 1 . en_in $end
$var wire 1 F r_nw_in $end
$var wire 17 / a_in [16:0] $end
$var wire 8 + d_in [7:0] $end
$var wire 8 0 d_out [7:0] $end
$var wire 1 G ram_bram_we $end
$var wire 8 H ram_bram_dout [7:0] $end
$var parameter 32 I ADDR_WIDTH [31:0] $end
$scope module ram_bram $end
$var wire 1 * clk $end
$var wire 1 G we $end
$var wire 17 / addr_a [16:0] $end
$var wire 8 + din_a [7:0] $end
$var wire 8 H dout_a [7:0] $end
$var reg 17 J q_addr_a [16:0] $end
$var integer 32 K i $end
$var parameter 32 L ADDR_WIDTH [31:0] $end
$var parameter 32 M DATA_WIDTH [31:0] $end
$upscope $end
$upscope $end
$scope module cpu0 $end
$var wire 1 * clk_in $end
$var wire 1 N rst_in $end
$var wire 1 5 rdy_in $end
$var wire 8 3 mem_din [7:0] $end
$var wire 8 4 mem_dout [7:0] $end
$var wire 32 1 mem_a [31:0] $end
$var wire 1 2 mem_wr $end
$var wire 32 6 dbgreg_dout [31:0] $end
$var wire 32 O if_pc [31:0] $end
$var wire 32 P if_inst [31:0] $end
$var wire 32 Q id_pc_i [31:0] $end
$var wire 32 R id_inst_i [31:0] $end
$var wire 11 S id_opcode [10:0] $end
$var wire 32 T id_reg1_o [31:0] $end
$var wire 32 U id_reg2_o [31:0] $end
$var wire 1 V id_wreg_o $end
$var wire 5 W id_wd_o [4:0] $end
$var wire 32 X id_imm [31:0] $end
$var wire 11 Y ex_opcode [10:0] $end
$var wire 32 Z ex_reg1_i [31:0] $end
$var wire 32 [ ex_reg2_i [31:0] $end
$var wire 1 \ ex_wreg_i $end
$var wire 5 ] ex_wd_i [4:0] $end
$var wire 32 ^ ex_imm [31:0] $end
$var wire 1 _ ex_wreg_o $end
$var wire 5 ` ex_wd_o [4:0] $end
$var wire 32 a ex_wdata_o [31:0] $end
$var wire 32 b ex_mem_addr [31:0] $end
$var wire 11 c ex_mem_opcode [10:0] $end
$var wire 1 d mem_wreg_i $end
$var wire 5 e mem_wd_i [4:0] $end
$var wire 32 f mem_wdata_i [31:0] $end
$var wire 32 g mem_mem_addr [31:0] $end
$var wire 11 h mem_opcode [10:0] $end
$var wire 1 i mem_wreg_o $end
$var wire 5 j mem_wd_o [4:0] $end
$var wire 32 k mem_wdata_o [31:0] $end
$var wire 1 l wb_wreg_i $end
$var wire 5 m wb_wd_i [4:0] $end
$var wire 32 n wb_wdata_i [31:0] $end
$var wire 1 o reg1_read $end
$var wire 1 p reg2_read $end
$var wire 32 q reg1_data [31:0] $end
$var wire 32 r reg2_data [31:0] $end
$var wire 5 s reg1_addr [4:0] $end
$var wire 5 t reg2_addr [4:0] $end
$var wire 1 u branch_enable $end
$var wire 32 v branch_addr [31:0] $end
$var wire 2 w if_or_mem_o [1:0] $end
$var wire 8 x cpu_data_o [7:0] $end
$var wire 1 y if_request $end
$var wire 32 z if_addr [31:0] $end
$var wire 2 { mem_request [1:0] $end
$var wire 32 | mem_addr [31:0] $end
$var wire 8 } cpu_data_i [7:0] $end
$var wire 1 ~ mem_busy $end
$var wire 8 !! stall_sign [7:0] $end
$var wire 32 "! ifc_raddr [31:0] $end
$var wire 1 #! ifc_hit $end
$var wire 32 $! ifc_inst [31:0] $end
$var wire 1 %! ifc_we $end
$var wire 32 &! ifc_waddr [31:0] $end
$var wire 32 '! ifc_wdata [31:0] $end
$var wire 1 (! id_stall_request $end
$var wire 1 )! mem_stall_request $end
$scope module icache0 $end
$var wire 1 * clk $end
$var wire 1 N rst $end
$var wire 32 "! raddr_i [31:0] $end
$var reg 1 *! hit_o $end
$var reg 32 +! inst_o [31:0] $end
$var wire 1 %! we_i $end
$var wire 32 &! waddr_i [31:0] $end
$var wire 32 '! winst_i [31:0] $end
$var wire 7 ,! raddr_idx [6:0] $end
$var wire 10 -! raddr_tag [16:7] $end
$var wire 7 .! waddr_idx [6:0] $end
$var wire 10 /! waddr_tag [16:7] $end
$var integer 32 0! i $end
$upscope $end
$scope module if0 $end
$var wire 1 * clk $end
$var wire 1 N rst $end
$var reg 1 1! if_request $end
$var reg 32 2! if_addr [31:0] $end
$var wire 8 x mem_ctrl_data [7:0] $end
$var wire 2 w if_or_mem_i [1:0] $end
$var wire 32 O pc_o [31:0] $end
$var reg 32 3! if_inst [31:0] $end
$var wire 1 u branch_enable_i $end
$var wire 32 v branch_addr_i [31:0] $end
$var wire 8 !! stall_sign [7:0] $end
$var reg 32 4! raddr_o [31:0] $end
$var wire 1 #! hit_i $end
$var wire 32 $! inst_i [31:0] $end
$var reg 1 5! we_o $end
$var reg 32 6! waddr_o [31:0] $end
$var reg 32 7! wdata_o [31:0] $end
$var reg 5 8! state [4:0] $end
$var reg 32 9! inst [31:0] $end
$var reg 32 :! pc [31:0] $end
$var reg 1 ;! stalled $end
$var reg 4 <! avoid_data_hazard [3:0] $end
$upscope $end
$scope module if_id0 $end
$var wire 1 * clk $end
$var wire 1 N rst $end
$var wire 32 O if_pc [31:0] $end
$var wire 32 P if_inst [31:0] $end
$var reg 32 =! id_pc [31:0] $end
$var reg 32 >! id_inst [31:0] $end
$var wire 8 !! stall_sign [7:0] $end
$upscope $end
$scope module regfile0 $end
$var wire 1 * clk $end
$var wire 1 N rst $end
$var wire 1 l we $end
$var wire 5 m waddr [4:0] $end
$var wire 32 n wdata [31:0] $end
$var wire 1 o re1 $end
$var wire 5 s raddr1 [4:0] $end
$var reg 32 ?! rdata1 [31:0] $end
$var wire 1 p re2 $end
$var wire 5 t raddr2 [4:0] $end
$var reg 32 @! rdata2 [31:0] $end
$upscope $end
$scope module id0 $end
$var wire 1 N rst $end
$var wire 32 Q pc_i [31:0] $end
$var wire 32 R inst_i [31:0] $end
$var wire 32 q reg1_data_i [31:0] $end
$var wire 32 r reg2_data_i [31:0] $end
$var reg 1 A! reg1_read_o $end
$var reg 1 B! reg2_read_o $end
$var reg 5 C! reg1_addr_o [4:0] $end
$var reg 5 D! reg2_addr_o [4:0] $end
$var reg 11 E! opcode_o [10:0] $end
$var reg 32 F! reg1_o [31:0] $end
$var reg 32 G! reg2_o [31:0] $end
$var reg 5 H! wd_o [4:0] $end
$var reg 1 I! wreg_o $end
$var reg 32 J! imm [31:0] $end
$var reg 1 K! branch_enable_o $end
$var reg 32 L! branch_addr_o [31:0] $end
$var wire 1 _ ex_wreg_i $end
$var wire 32 a ex_wdata_i [31:0] $end
$var wire 5 ` ex_wd_i [4:0] $end
$var wire 11 c ex_opcode_i [10:0] $end
$var wire 1 i mem_wreg_i $end
$var wire 32 k mem_wdata_i [31:0] $end
$var wire 5 j mem_wd_i [4:0] $end
$var reg 1 M! id_stall_request $end
$var wire 8 !! stall_sign [7:0] $end
$var wire 32 N! pc_plus_4 [31:0] $end
$var reg 1 O! instvalid $end
$upscope $end
$scope module id_ex0 $end
$var wire 1 * clk $end
$var wire 1 N rst $end
$var wire 11 S id_opcode [10:0] $end
$var wire 32 T id_reg1 [31:0] $end
$var wire 32 U id_reg2 [31:0] $end
$var wire 5 W id_wd [4:0] $end
$var wire 1 V id_wreg $end
$var wire 32 X id_imm [31:0] $end
$var reg 11 P! ex_opcode [10:0] $end
$var reg 32 Q! ex_reg1 [31:0] $end
$var reg 32 R! ex_reg2 [31:0] $end
$var reg 5 S! ex_wd [4:0] $end
$var reg 1 T! ex_wreg $end
$var reg 32 U! ex_imm [31:0] $end
$var wire 8 !! stall_sign [7:0] $end
$upscope $end
$scope module ex0 $end
$var wire 1 N rst $end
$var wire 11 Y opcode_i [10:0] $end
$var wire 32 Z reg1_i [31:0] $end
$var wire 32 [ reg2_i [31:0] $end
$var wire 5 ] wd_i [4:0] $end
$var wire 1 \ wreg_i $end
$var wire 32 ^ imm_i [31:0] $end
$var reg 5 V! wd_o [4:0] $end
$var reg 1 W! wreg_o $end
$var reg 32 X! wdata_o [31:0] $end
$var reg 32 Y! mem_addr [31:0] $end
$var wire 11 c opcode_o [10:0] $end
$var wire 8 !! stall_sign [7:0] $end
$upscope $end
$scope module ex_mem0 $end
$var wire 1 * clk $end
$var wire 1 N rst $end
$var wire 5 ` ex_wd [4:0] $end
$var wire 1 _ ex_wreg $end
$var wire 32 a ex_wdata [31:0] $end
$var wire 32 b ex_mem_addr [31:0] $end
$var wire 11 c ex_opcode_i [10:0] $end
$var reg 5 Z! mem_wd [4:0] $end
$var reg 1 [! mem_wreg $end
$var reg 32 \! mem_wdata [31:0] $end
$var reg 32 ]! mem_mem_addr [31:0] $end
$var reg 11 ^! mem_opcode_o [10:0] $end
$var wire 8 !! stall_sign [7:0] $end
$upscope $end
$scope module mem0 $end
$var wire 1 * clk $end
$var wire 1 N rst $end
$var wire 5 e wd_i [4:0] $end
$var wire 1 d wreg_i $end
$var wire 32 f wdata_i [31:0] $end
$var wire 32 g mem_addr_i [31:0] $end
$var wire 11 h opcode_i [10:0] $end
$var reg 5 _! wd_o [4:0] $end
$var reg 1 `! wreg_o $end
$var reg 32 a! wdata_o [31:0] $end
$var wire 2 w if_or_mem [1:0] $end
$var wire 8 x mem_ctrl_data_i [7:0] $end
$var reg 8 b! mem_ctrl_data_o [7:0] $end
$var reg 2 c! mem_request [1:0] $end
$var reg 32 d! mem_addr [31:0] $end
$var reg 1 e! mem_stall_request $end
$var wire 8 !! stall_sign [7:0] $end
$var reg 4 f! state [3:0] $end
$var reg 1 g! hold $end
$upscope $end
$scope module mem_wb0 $end
$var wire 1 * clk $end
$var wire 1 N rst $end
$var wire 5 j mem_wd [4:0] $end
$var wire 1 i mem_wreg $end
$var wire 32 k mem_wdata [31:0] $end
$var reg 5 h! wb_wd [4:0] $end
$var reg 1 i! wb_wreg $end
$var reg 32 j! wb_wdata [31:0] $end
$var wire 8 !! stall_sign [7:0] $end
$upscope $end
$scope module mem_ctrl0 $end
$var wire 1 * clk $end
$var wire 1 N rst $end
$var wire 1 y if_request $end
$var wire 32 z if_addr [31:0] $end
$var wire 2 { mem_request [1:0] $end
$var wire 32 | mem_addr [31:0] $end
$var wire 8 } cpu_data_i [7:0] $end
$var wire 8 x cpu_data_o [7:0] $end
$var reg 2 k! if_or_mem_o [1:0] $end
$var wire 8 3 ram_data_i [7:0] $end
$var reg 8 l! ram_data_o [7:0] $end
$var reg 32 m! ram_addr_o [31:0] $end
$var reg 1 n! ram_rw $end
$upscope $end
$scope module ctrl0 $end
$var wire 1 * clk $end
$var wire 1 N rst $end
$var wire 1 (! id_stall_request $end
$var wire 1 )! mem_stall_request $end
$var reg 8 o! stall_sign [7:0] $end
$upscope $end
$upscope $end
$scope module hci0 $end
$var wire 1 * clk $end
$var wire 1 p! rst $end
$var wire 1 % tx $end
$var wire 1 & rx $end
$var wire 1 7 active $end
$var reg 1 q! ram_wr $end
$var wire 17 : ram_a [16:0] $end
$var wire 8 8 ram_din [7:0] $end
$var wire 8 9 ram_dout [7:0] $end
$var wire 3 = io_sel [2:0] $end
$var wire 1 < io_en $end
$var wire 8 > io_din [7:0] $end
$var wire 8 ? io_dout [7:0] $end
$var wire 1 @ io_wr $end
$var wire 32 6 cpu_dbgreg_din [31:0] $end
$var reg 5 r! q_state [4:0] $end
$var reg 5 s! d_state [4:0] $end
$var reg 3 t! q_decode_cnt [2:0] $end
$var reg 3 u! d_decode_cnt [2:0] $end
$var reg 17 v! q_execute_cnt [16:0] $end
$var reg 17 w! d_execute_cnt [16:0] $end
$var reg 17 x! q_addr [16:0] $end
$var reg 17 y! d_addr [16:0] $end
$var reg 2 z! q_err_code [1:0] $end
$var reg 2 {! d_err_code [1:0] $end
$var reg 8 |! q_tx_data [7:0] $end
$var reg 8 }! d_tx_data [7:0] $end
$var reg 1 ~! q_wr_en $end
$var reg 1 !" d_wr_en $end
$var reg 1 "" rd_en $end
$var wire 8 #" rd_data [7:0] $end
$var wire 1 $" rx_empty $end
$var wire 1 %" tx_full $end
$var wire 1 &" parity_err $end
$var reg 1 '" io_in_rd_en $end
$var reg 1 (" q_io_in_wr_en $end
$var reg 1 )" d_io_in_wr_en $end
$var reg 8 *" q_io_in_wr_data [7:0] $end
$var reg 8 +" d_io_in_wr_data [7:0] $end
$var wire 8 ," io_in_rd_data [7:0] $end
$var wire 1 -" io_in_empty $end
$var wire 1 ." io_in_full $end
$var reg 1 /" q_io_en $end
$var reg 8 0" q_io_dout [7:0] $end
$var reg 8 1" d_io_dout [7:0] $end
$var reg 32 2" q_cpu_cycle_cnt [31:0] $end
$var wire 32 3" d_cpu_cycle_cnt [31:0] $end
$var parameter 32 4" SYS_CLK_FREQ [31:0] $end
$var parameter 32 5" RAM_ADDR_WIDTH [31:0] $end
$var parameter 32 6" BAUD_RATE [31:0] $end
$var parameter 8 7" OP_ECHO [7:0] $end
$var parameter 8 8" OP_CPU_REG_RD [7:0] $end
$var parameter 8 9" OP_CPU_REG_WR [7:0] $end
$var parameter 8 :" OP_DBG_BRK [7:0] $end
$var parameter 8 ;" OP_DBG_RUN [7:0] $end
$var parameter 8 <" OP_IO_IN [7:0] $end
$var parameter 8 =" OP_QUERY_DBG_BRK [7:0] $end
$var parameter 8 >" OP_QUERY_ERR_CODE [7:0] $end
$var parameter 8 ?" OP_MEM_RD [7:0] $end
$var parameter 8 @" OP_MEM_WR [7:0] $end
$var parameter 8 A" OP_DISABLE [7:0] $end
$var parameter 32 B" DBG_UART_PARITY_ERR [31:0] $end
$var parameter 32 C" DBG_UNKNOWN_OPCODE [31:0] $end
$var parameter 5 D" S_DISABLED [4:0] $end
$var parameter 5 E" S_DECODE [4:0] $end
$var parameter 5 F" S_ECHO_STG_0 [4:0] $end
$var parameter 5 G" S_ECHO_STG_1 [4:0] $end
$var parameter 5 H" S_IO_IN_STG_0 [4:0] $end
$var parameter 5 I" S_IO_IN_STG_1 [4:0] $end
$var parameter 5 J" S_CPU_REG_RD_STG0 [4:0] $end
$var parameter 5 K" S_CPU_REG_RD_STG1 [4:0] $end
$var parameter 5 L" S_QUERY_ERR_CODE [4:0] $end
$var parameter 5 M" S_MEM_RD_STG_0 [4:0] $end
$var parameter 5 N" S_MEM_RD_STG_1 [4:0] $end
$var parameter 5 O" S_MEM_WR_STG_0 [4:0] $end
$var parameter 5 P" S_MEM_WR_STG_1 [4:0] $end
$var parameter 5 Q" S_DISABLE [4:0] $end
$var parameter 32 R" IO_IN_BUF_WIDTH [31:0] $end
$scope module io_in_fifo $end
$var wire 1 * clk $end
$var wire 1 p! reset $end
$var wire 1 S" rd_en $end
$var wire 1 T" wr_en $end
$var wire 8 U" wr_data [7:0] $end
$var wire 8 ," rd_data [7:0] $end
$var wire 1 ." full $end
$var wire 1 -" empty $end
$var reg 10 V" q_rd_ptr [9:0] $end
$var wire 10 W" d_rd_ptr [9:0] $end
$var reg 10 X" q_wr_ptr [9:0] $end
$var wire 10 Y" d_wr_ptr [9:0] $end
$var reg 1 Z" q_empty $end
$var wire 1 [" d_empty $end
$var reg 1 \" q_full $end
$var wire 1 ]" d_full $end
$var wire 8 ^" d_data [7:0] $end
$var wire 1 _" rd_en_prot $end
$var wire 1 `" wr_en_prot $end
$var wire 10 a" addr_bits_wide_1 [9:0] $end
$var parameter 32 b" DATA_BITS [31:0] $end
$var parameter 32 c" ADDR_BITS [31:0] $end
$upscope $end
$scope module uart_blk $end
$var wire 1 * clk $end
$var wire 1 p! reset $end
$var wire 1 & rx $end
$var wire 8 d" tx_data [7:0] $end
$var wire 1 e" rd_en $end
$var wire 1 f" wr_en $end
$var wire 1 % tx $end
$var wire 8 #" rx_data [7:0] $end
$var wire 1 $" rx_empty $end
$var wire 1 %" tx_full $end
$var wire 1 &" parity_err $end
$var wire 1 g" baud_clk_tick $end
$var wire 8 h" rx_fifo_wr_data [7:0] $end
$var wire 1 i" rx_done_tick $end
$var wire 1 j" rx_parity_err $end
$var wire 8 k" tx_fifo_rd_data [7:0] $end
$var wire 1 l" tx_done_tick $end
$var wire 1 m" tx_fifo_empty $end
$var reg 1 n" q_rx_parity_err $end
$var wire 1 o" d_rx_parity_err $end
$var parameter 32 p" SYS_CLK_FREQ [31:0] $end
$var parameter 32 q" BAUD_RATE [31:0] $end
$var parameter 32 r" DATA_BITS [31:0] $end
$var parameter 32 s" STOP_BITS [31:0] $end
$var parameter 32 t" PARITY_MODE [31:0] $end
$var parameter 32 u" BAUD_CLK_OVERSAMPLE_RATE [31:0] $end
$scope module uart_baud_clk_blk $end
$var wire 1 * clk $end
$var wire 1 p! reset $end
$var wire 1 g" baud_clk_tick $end
$var reg 16 v" q_cnt [15:0] $end
$var wire 16 w" d_cnt [15:0] $end
$var parameter 32 x" SYS_CLK_FREQ [31:0] $end
$var parameter 32 y" BAUD [31:0] $end
$var parameter 32 z" BAUD_CLK_OVERSAMPLE_RATE [31:0] $end
$var parameter 16 {" CLKS_PER_OVERSAMPLE_TICK [15:0] $end
$upscope $end
$scope module uart_rx_blk $end
$var wire 1 * clk $end
$var wire 1 p! reset $end
$var wire 1 g" baud_clk_tick $end
$var wire 1 & rx $end
$var wire 8 h" rx_data [7:0] $end
$var wire 1 i" rx_done_tick $end
$var wire 1 j" parity_err $end
$var reg 5 |" q_state [4:0] $end
$var reg 5 }" d_state [4:0] $end
$var reg 4 ~" q_oversample_tick_cnt [3:0] $end
$var reg 4 !# d_oversample_tick_cnt [3:0] $end
$var reg 8 "# q_data [7:0] $end
$var reg 8 ## d_data [7:0] $end
$var reg 3 $# q_data_bit_idx [2:0] $end
$var reg 3 %# d_data_bit_idx [2:0] $end
$var reg 1 &# q_done_tick $end
$var reg 1 '# d_done_tick $end
$var reg 1 (# q_parity_err $end
$var reg 1 )# d_parity_err $end
$var reg 1 *# q_rx $end
$var parameter 32 +# DATA_BITS [31:0] $end
$var parameter 32 ,# STOP_BITS [31:0] $end
$var parameter 32 -# PARITY_MODE [31:0] $end
$var parameter 32 .# BAUD_CLK_OVERSAMPLE_RATE [31:0] $end
$var parameter 6 /# STOP_OVERSAMPLE_TICKS [5:0] $end
$var parameter 5 0# S_IDLE [4:0] $end
$var parameter 5 1# S_START [4:0] $end
$var parameter 5 2# S_DATA [4:0] $end
$var parameter 5 3# S_PARITY [4:0] $end
$var parameter 5 4# S_STOP [4:0] $end
$upscope $end
$scope module uart_tx_blk $end
$var wire 1 * clk $end
$var wire 1 p! reset $end
$var wire 1 g" baud_clk_tick $end
$var wire 1 5# tx_start $end
$var wire 8 k" tx_data [7:0] $end
$var wire 1 l" tx_done_tick $end
$var wire 1 % tx $end
$var reg 5 6# q_state [4:0] $end
$var reg 5 7# d_state [4:0] $end
$var reg 4 8# q_baud_clk_tick_cnt [3:0] $end
$var reg 4 9# d_baud_clk_tick_cnt [3:0] $end
$var reg 8 :# q_data [7:0] $end
$var reg 8 ;# d_data [7:0] $end
$var reg 3 <# q_data_bit_idx [2:0] $end
$var reg 3 =# d_data_bit_idx [2:0] $end
$var reg 1 ># q_parity_bit $end
$var reg 1 ?# d_parity_bit $end
$var reg 1 @# q_tx $end
$var reg 1 A# d_tx $end
$var reg 1 B# q_tx_done_tick $end
$var reg 1 C# d_tx_done_tick $end
$var parameter 32 D# DATA_BITS [31:0] $end
$var parameter 32 E# STOP_BITS [31:0] $end
$var parameter 32 F# PARITY_MODE [31:0] $end
$var parameter 32 G# BAUD_CLK_OVERSAMPLE_RATE [31:0] $end
$var parameter 6 H# STOP_OVERSAMPLE_TICKS [5:0] $end
$var parameter 5 I# S_IDLE [4:0] $end
$var parameter 5 J# S_START [4:0] $end
$var parameter 5 K# S_DATA [4:0] $end
$var parameter 5 L# S_PARITY [4:0] $end
$var parameter 5 M# S_STOP [4:0] $end
$upscope $end
$scope module uart_rx_fifo $end
$var wire 1 * clk $end
$var wire 1 p! reset $end
$var wire 1 e" rd_en $end
$var wire 1 i" wr_en $end
$var wire 8 h" wr_data [7:0] $end
$var wire 8 #" rd_data [7:0] $end
$var wire 1 N# full $end
$var wire 1 $" empty $end
$var reg 3 O# q_rd_ptr [2:0] $end
$var wire 3 P# d_rd_ptr [2:0] $end
$var reg 3 Q# q_wr_ptr [2:0] $end
$var wire 3 R# d_wr_ptr [2:0] $end
$var reg 1 S# q_empty $end
$var wire 1 T# d_empty $end
$var reg 1 U# q_full $end
$var wire 1 V# d_full $end
$var wire 8 W# d_data [7:0] $end
$var wire 1 X# rd_en_prot $end
$var wire 1 Y# wr_en_prot $end
$var wire 3 Z# addr_bits_wide_1 [2:0] $end
$var parameter 32 [# DATA_BITS [31:0] $end
$var parameter 32 \# ADDR_BITS [31:0] $end
$upscope $end
$scope module uart_tx_fifo $end
$var wire 1 * clk $end
$var wire 1 p! reset $end
$var wire 1 l" rd_en $end
$var wire 1 f" wr_en $end
$var wire 8 d" wr_data [7:0] $end
$var wire 8 k" rd_data [7:0] $end
$var wire 1 %" full $end
$var wire 1 m" empty $end
$var reg 10 ]# q_rd_ptr [9:0] $end
$var wire 10 ^# d_rd_ptr [9:0] $end
$var reg 10 _# q_wr_ptr [9:0] $end
$var wire 10 `# d_wr_ptr [9:0] $end
$var reg 1 a# q_empty $end
$var wire 1 b# d_empty $end
$var reg 1 c# q_full $end
$var wire 1 d# d_full $end
$var wire 8 e# d_data [7:0] $end
$var wire 1 f# rd_en_prot $end
$var wire 1 g# wr_en_prot $end
$var wire 10 h# addr_bits_wide_1 [9:0] $end
$var parameter 32 i# DATA_BITS [31:0] $end
$var parameter 32 j# ADDR_BITS [31:0] $end
$upscope $end
$upscope $end
$upscope $end
$upscope $end
$upscope $end
$enddefinitions $end
#0
$dumpvars
0!
b0 !!
0!"
b0 !#
1"
bx "!
0""
b0 "#
0#
0#!
bx #"
b0 ##
1$
b0 $!
x$"
b0 $#
1%
x%!
x%"
b0 %#
z&
bx &!
0&"
0&#
0'
bx '!
0'"
0'#
1(
0(!
x("
0(#
1)
0)!
0)"
0)#
0*
0*!
bx *"
1*#
b0 +
b0 +!
b0 +"
b1000 +#
b0 ,
bx ,!
bx ,"
b1 ,#
0-
bx -!
x-"
b1 -#
1.
bx .!
x."
b10000 .#
b0 /
bx /!
x/"
b10000 /#
bx 0
bx 0!
bx 0"
b1 0#
b0 1
x1!
b0 1"
b10 1#
02
bx 2!
bx 2"
b100 2#
bx 3
bx 3!
bx 3"
b1000 3#
b0 4
bx 4!
b101111101011110000100000000 4"
b10000 4#
15
x5!
b10001 5"
x5#
bz 6
bx 6!
b11100001000000000 6"
b1 6#
x7
bx 7!
b0 7"
b1 7#
bx 8
bx 8!
b1 8"
b0 8#
bx 9
bx 9!
b10 9"
b0 9#
bx :
bx :!
b11 :"
b0 :#
0;
x;!
b100 ;"
b0 ;#
0<
bx <!
b101 <"
b0 <#
b0 =
bx =!
b111 ="
b0 =#
b0 >
bx >!
b1000 >"
0>#
bx ?
b0 ?!
b1001 ?"
0?#
0@
b0 @!
b1010 @"
1@#
0A
0A!
b1011 A"
1A#
b1 B
0B!
b0 B"
0B#
b101111101011110000100000000 C
b0 C!
b1 C"
0C#
b11100001000000000 D
b0 D!
b0 D"
b1000 D#
b10001 E
b0 E!
b1 E"
b1 E#
1F
b0 F!
b10 F"
b1 F#
0G
b0 G!
b11 G"
b10000 G#
bx H
b0 H!
b100 H"
b10000 H#
b10001 I
0I!
b101 I"
b1 I#
bx J
b0 J!
b110 J"
b10 J#
b100000000000000000 K
xK!
b111 K"
b100 K#
b10001 L
bx L!
b1000 L"
b1000 L#
b1000 M
0M!
b1001 M"
b10000 M#
1N
bx N!
b1010 N"
xN#
bx O
0O!
b1011 O"
bx O#
bx P
bx P!
b1100 P"
bx P#
bx Q
bx Q!
b10000 Q"
bx Q#
bx R
bx R!
b1010 R"
bx R#
b0 S
bx S!
0S"
xS#
b0 T
xT!
xT"
xT#
b0 U
bx U!
bx U"
xU#
0V
b0 V!
bx V"
xV#
b0 W
0W!
bx W"
bx W#
b0 X
b0 X!
bx X"
0X#
bx Y
bx Y!
bx Y"
0Y#
bx Z
bx Z!
xZ"
b1 Z#
bx [
x[!
x["
b1000 [#
x\
bx \!
x\"
b11 \#
bx ]
bx ]!
x]"
bx ]#
bx ^
bx ^!
bx ^"
bx ^#
0_
bx _!
0_"
bx _#
b0 `
x`!
x`"
bx `#
b0 a
bx a!
b1 a"
xa#
bx b
bx b!
b1000 b"
xb#
bx c
bx c!
b1010 c"
xc#
xd
bx d!
bx d"
xd#
bx e
0e!
0e"
bx e#
bx f
bx f!
xf"
0f#
bx g
xg!
0g"
xg#
bx h
bx h!
b0 h"
b1 h#
xi
xi!
0i"
b1000 i#
bx j
bx j!
0j"
b1010 j#
bx k
b0 k!
bx k"
xl
b0 l!
0l"
bx m
b0 m!
xm"
bx n
0n!
0n"
0o
b0 o!
0o"
0p
1p!
b101111101011110000100000000 p"
b0 q
0q!
b11100001000000000 q"
b0 r
bx r!
b1000 r"
b0 s
bx s!
b1 s"
b0 t
bx t!
b1 t"
xu
bx u!
b10000 u"
bx v
bx v!
b0 v"
b0 w
bx w!
b1 w"
bx x
bx x!
b101111101011110000100000000 x"
xy
bx y!
b11100001000000000 y"
bx z
bx z!
b10000 z"
bx {
bx {!
b110110 {"
bx |
bx |!
b1 |"
bx }
b0 }!
b1 }"
z~
x~!
b0 ~"
$end
#1000
1!
1#
bx #"
1$"
0%!
0%"
0("
1*
b0 *"
b0 ,
bx ,"
1-"
0."
0/"
b110111 0
b10000000 0!
b0 0"
01!
b0 2!
b0 2"
b110111 3
b0 3!
b0 3"
05!
05#
17
b110111 8
b0 8!
b0 9!
b0 :
b0 :!
b0 <!
b0 =!
b0 >!
b0 ?
0A
0A!
0B!
b0 C!
b0 D!
b0 E!
b110111 H
b0 H!
0I!
b0 J
b0 J!
0M!
b100 N!
0N#
b11111111111111111111111111111100 O
b0 O#
b0 P
b0 P!
b0 P#
b0 Q
b0 Q!
b0 Q#
b0 R
b0 R!
b0 R#
b0 S!
1S#
0T!
0T"
1T#
b0 U!
b0 U"
0U#
b0 V"
0V#
b0 W"
b0 X"
0X#
b0 Y
b0 Y"
0Y#
b0 Z
b0 Z!
1Z"
b0 [
0[!
1["
0\
b0 \!
0\"
b0 ]
b0 ]!
0]"
b0 ]#
b0 ^
b0 ^!
b0 ^#
b0 _!
0_"
b0 _#
0`!
0`"
b0 `#
b0 a!
1a#
b0 b!
1b#
b0 c
b0 c!
0c#
0d
b0 d!
b0 d"
0d#
b0 e
b0 f
b0 f!
0f"
0f#
b0 g
0g!
0g#
b0 h
b0 h!
0i
0i!
b0 j
b0 j!
b0 k
bx k"
0l
b0 m
1m"
b0 n
0q!
b1 r!
b1 s!
b0 t!
b0 u!
b0 v!
b0 w!
b110111 x
b0 x!
0y
b0 y!
b0 z
b0 z!
b0 {
b0 {!
b0 |
b0 |!
b0 }
0~!
#2000
0!
0#
0*
#3000
1!
1#
1*
b10000000 0!
#4000
0!
0#
0*
#5000
1!
1#
1*
b10000000 0!
#6000
0!
0#
0*
#7000
1!
1#
1*
b10000000 0!
#8000
0!
0#
0*
#9000
1!
1#
1*
b10000000 0!
#10000
0!
0#
0*
#11000
1!
1#
1*
b10000000 0!
#12000
0!
0#
0*
#13000
1!
1#
1*
b10000000 0!
#14000
0!
0#
0*
#15000
1!
1#
1*
b10000000 0!
#16000
0!
0#
0*
#17000
1!
1#
1*
b10000000 0!
#18000
0!
0#
0*
#19000
1!
1#
1*
b10000000 0!
#20000
0!
0#
0*
#21000
1!
1#
1*
b10000000 0!
#22000
0!
0#
0*
#23000
1!
1#
1*
b10000000 0!
#24000
0!
0#
0*
#25000
1!
1#
1*
b10000000 0!
#26000
0!
0#
0*
#27000
1!
1#
1*
b10000000 0!
#28000
0!
0#
0*
#29000
1!
1#
1*
b10000000 0!
#30000
0!
0#
0*
#31000
1!
1#
1*
b10000000 0!
#32000
0!
0#
0*
#33000
1!
1#
1*
b10000000 0!
#34000
0!
0#
0*
#35000
1!
1#
1*
b10000000 0!
#36000
0!
0#
0*
#37000
1!
1#
1*
b10000000 0!
#38000
0!
0#
0*
#39000
1!
1#
1*
b10000000 0!
#40000
0!
0#
0*
#41000
1!
1#
1*
b10000000 0!
#42000
0!
0#
0*
