CPU_project/CPU.sim/sim_1/behav/xsim/my1.vcd
$date
   Sun Dec  8 23:25:37 2019
$end
$version
  2018.2
$end
$timescale
  1ps
$end
$scope module testbench $end
$var reg 1 ! clk $end
$var reg 1 " rst $end
$scope module top $end
$var wire 1 # EXCLK $end
$var wire 1 $ btnC $end
$var wire 1 % Tx $end
$var wire 1 & Rx $end
$var wire 1 ' led $end
$var reg 1 ( rst $end
$var reg 1 ) rst_delay $end
$var wire 1 * clk $end
$var wire 8 + cpumc_din [7:0] $end
$var wire 32 , cpumc_a [31:0] $end
$var wire 1 - cpumc_wr $end
$var wire 1 . ram_en $end
$var wire 17 / ram_a [16:0] $end
$var wire 8 0 ram_dout [7:0] $end
$var wire 32 1 cpu_ram_a [31:0] $end
$var wire 1 2 cpu_ram_wr $end
$var wire 8 3 cpu_ram_din [7:0] $end
$var wire 8 4 cpu_ram_dout [7:0] $end
$var wire 1 5 cpu_rdy $end
$var wire 32 6 cpu_dbgreg_dout [31:0] $end
$var wire 1 7 hci_active_out $end
$var wire 8 8 hci_ram_din [7:0] $end
$var wire 8 9 hci_ram_dout [7:0] $end
$var wire 17 : hci_ram_a [16:0] $end
$var wire 1 ; hci_ram_wr $end
$var wire 1 < hci_io_en $end
$var wire 3 = hci_io_sel [2:0] $end
$var wire 8 > hci_io_din [7:0] $end
$var wire 8 ? hci_io_dout [7:0] $end
$var wire 1 @ hci_io_wr $end
$var wire 1 A hci_active $end
$var parameter 32 B SIM [31:0] $end
$var parameter 32 C SYS_CLK_FREQ [31:0] $end
$var parameter 32 D UART_BAUD_RATE [31:0] $end
$var parameter 32 E RAM_ADDR_WIDTH [31:0] $end
$scope module ram0 $end
$var wire 1 * clk_in $end
$var wire 1 . en_in $end
$var wire 1 F r_nw_in $end
$var wire 17 / a_in [16:0] $end
$var wire 8 + d_in [7:0] $end
$var wire 8 0 d_out [7:0] $end
$var wire 1 G ram_bram_we $end
$var wire 8 H ram_bram_dout [7:0] $end
$var parameter 32 I ADDR_WIDTH [31:0] $end
$scope module ram_bram $end
$var wire 1 * clk $end
$var wire 1 G we $end
$var wire 17 / addr_a [16:0] $end
$var wire 8 + din_a [7:0] $end
$var wire 8 H dout_a [7:0] $end
$var reg 17 J q_addr_a [16:0] $end
$var integer 32 K i $end
$var parameter 32 L ADDR_WIDTH [31:0] $end
$var parameter 32 M DATA_WIDTH [31:0] $end
$upscope $end
$upscope $end
$scope module cpu0 $end
$var wire 1 * clk_in $end
$var wire 1 N rst_in $end
$var wire 1 5 rdy_in $end
$var wire 8 3 mem_din [7:0] $end
$var wire 8 4 mem_dout [7:0] $end
$var wire 32 1 mem_a [31:0] $end
$var wire 1 2 mem_wr $end
$var wire 32 6 dbgreg_dout [31:0] $end
$var wire 32 O if_pc [31:0] $end
$var wire 32 P if_inst [31:0] $end
$var wire 32 Q id_pc_i [31:0] $end
$var wire 32 R id_inst_i [31:0] $end
$var wire 11 S id_opcode [10:0] $end
$var wire 32 T id_reg1_o [31:0] $end
$var wire 32 U id_reg2_o [31:0] $end
$var wire 1 V id_wreg_o $end
$var wire 5 W id_wd_o [4:0] $end
$var wire 32 X id_imm [31:0] $end
$var wire 32 Y id_branch_addr [31:0] $end
$var wire 11 Z ex_opcode [10:0] $end
$var wire 32 [ ex_reg1_i [31:0] $end
$var wire 32 \ ex_reg2_i [31:0] $end
$var wire 1 ] ex_wreg_i $end
$var wire 5 ^ ex_wd_i [4:0] $end
$var wire 32 _ ex_imm [31:0] $end
$var wire 32 ` ex_branch_addr [31:0] $end
$var wire 1 a ex_wreg_o $end
$var wire 5 b ex_wd_o [4:0] $end
$var wire 32 c ex_wdata_o [31:0] $end
$var wire 32 d ex_mem_addr [31:0] $end
$var wire 11 e ex_mem_opcode [10:0] $end
$var wire 1 f mem_wreg_i $end
$var wire 5 g mem_wd_i [4:0] $end
$var wire 32 h mem_wdata_i [31:0] $end
$var wire 32 i mem_mem_addr [31:0] $end
$var wire 11 j mem_opcode [10:0] $end
$var wire 1 k mem_wreg_o $end
$var wire 5 l mem_wd_o [4:0] $end
$var wire 32 m mem_wdata_o [31:0] $end
$var wire 1 n wb_wreg_i $end
$var wire 5 o wb_wd_i [4:0] $end
$var wire 32 p wb_wdata_i [31:0] $end
$var wire 1 q reg1_read $end
$var wire 1 r reg2_read $end
$var wire 32 s reg1_data [31:0] $end
$var wire 32 t reg2_data [31:0] $end
$var wire 5 u reg1_addr [4:0] $end
$var wire 5 v reg2_addr [4:0] $end
$var wire 1 w branch_enable $end
$var wire 32 x branch_addr [31:0] $end
$var wire 2 y if_or_mem_o [1:0] $end
$var wire 8 z cpu_data_o [7:0] $end
$var wire 1 { if_request $end
$var wire 32 | if_addr [31:0] $end
$var wire 2 } mem_request [1:0] $end
$var wire 32 ~ mem_addr [31:0] $end
$var wire 8 !! cpu_data_i [7:0] $end
$var wire 1 "! mem_busy $end
$var wire 8 #! stall_sign [7:0] $end
$var wire 32 $! ifc_raddr [31:0] $end
$var wire 1 %! ifc_hit $end
$var wire 32 &! ifc_inst [31:0] $end
$var wire 1 '! ifc_we $end
$var wire 32 (! ifc_waddr [31:0] $end
$var wire 32 )! ifc_wdata [31:0] $end
$var wire 1 *! id_stall_request $end
$var wire 1 +! mem_stall_request $end
$scope module icache0 $end
$var wire 1 * clk $end
$var wire 1 N rst $end
$var wire 32 $! raddr_i [31:0] $end
$var reg 1 ,! hit_o $end
$var reg 32 -! inst_o [31:0] $end
$var wire 1 '! we_i $end
$var wire 32 (! waddr_i [31:0] $end
$var wire 32 )! winst_i [31:0] $end
$var wire 7 .! raddr_idx [6:0] $end
$var wire 10 /! raddr_tag [16:7] $end
$var wire 7 0! waddr_idx [6:0] $end
$var wire 10 1! waddr_tag [16:7] $end
$var integer 32 2! i $end
$upscope $end
$scope module if0 $end
$var wire 1 * clk $end
$var wire 1 N rst $end
$var reg 1 3! if_request $end
$var reg 32 4! if_addr [31:0] $end
$var wire 8 z mem_ctrl_data [7:0] $end
$var wire 2 y if_or_mem_i [1:0] $end
$var wire 32 O pc_o [31:0] $end
$var reg 32 5! if_inst [31:0] $end
$var wire 1 w branch_enable_i $end
$var wire 32 x branch_addr_i [31:0] $end
$var wire 8 #! stall_sign [7:0] $end
$var reg 32 6! raddr_o [31:0] $end
$var wire 1 %! hit_i $end
$var wire 32 &! inst_i [31:0] $end
$var reg 1 7! we_o $end
$var reg 32 8! waddr_o [31:0] $end
$var reg 32 9! wdata_o [31:0] $end
$var reg 5 :! state [4:0] $end
$var reg 32 ;! inst [31:0] $end
$var reg 32 <! pc [31:0] $end
$var reg 1 =! stalled $end
$var reg 4 >! avoid_data_hazard [3:0] $end
$upscope $end
$scope module if_id0 $end
$var wire 1 * clk $end
$var wire 1 N rst $end
$var wire 32 O if_pc [31:0] $end
$var wire 32 P if_inst [31:0] $end
$var reg 32 ?! id_pc [31:0] $end
$var reg 32 @! id_inst [31:0] $end
$var wire 8 #! stall_sign [7:0] $end
$upscope $end
$scope module regfile0 $end
$var wire 1 * clk $end
$var wire 1 N rst $end
$var wire 1 n we $end
$var wire 5 o waddr [4:0] $end
$var wire 32 p wdata [31:0] $end
$var wire 1 q re1 $end
$var wire 5 u raddr1 [4:0] $end
$var reg 32 A! rdata1 [31:0] $end
$var wire 1 r re2 $end
$var wire 5 v raddr2 [4:0] $end
$var reg 32 B! rdata2 [31:0] $end
$upscope $end
$scope module id0 $end
$var wire 1 N rst $end
$var wire 32 Q pc_i [31:0] $end
$var wire 32 R inst_i [31:0] $end
$var wire 32 s reg1_data_i [31:0] $end
$var wire 32 t reg2_data_i [31:0] $end
$var reg 1 C! reg1_read_o $end
$var reg 1 D! reg2_read_o $end
$var reg 5 E! reg1_addr_o [4:0] $end
$var reg 5 F! reg2_addr_o [4:0] $end
$var reg 11 G! opcode_o [10:0] $end
$var reg 32 H! reg1_o [31:0] $end
$var reg 32 I! reg2_o [31:0] $end
$var reg 5 J! wd_o [4:0] $end
$var reg 1 K! wreg_o $end
$var reg 32 L! imm [31:0] $end
$var reg 32 M! branch_addr_o [31:0] $end
$var wire 1 a ex_wreg_i $end
$var wire 32 c ex_wdata_i [31:0] $end
$var wire 5 b ex_wd_i [4:0] $end
$var wire 11 e ex_opcode_i [10:0] $end
$var wire 1 f ex_mem_wreg_i $end
$var wire 32 h ex_mem_wdata_i [31:0] $end
$var wire 5 g ex_mem_wd_i [4:0] $end
$var wire 11 j ex_mem_opcode_i [10:0] $end
$var wire 1 k mem_wreg_i $end
$var wire 32 m mem_wdata_i [31:0] $end
$var wire 5 l mem_wd_i [4:0] $end
$var reg 1 N! id_stall_request $end
$var wire 8 #! stall_sign [7:0] $end
$var wire 32 O! pc_plus_4 [31:0] $end
$var reg 1 P! instvalid $end
$upscope $end
$scope module id_ex0 $end
$var wire 1 * clk $end
$var wire 1 N rst $end
$var wire 11 S id_opcode [10:0] $end
$var wire 32 T id_reg1 [31:0] $end
$var wire 32 U id_reg2 [31:0] $end
$var wire 5 W id_wd [4:0] $end
$var wire 1 V id_wreg $end
$var wire 32 X id_imm [31:0] $end
$var wire 32 Y id_branch_addr [31:0] $end
$var reg 11 Q! ex_opcode [10:0] $end
$var reg 32 R! ex_reg1 [31:0] $end
$var reg 32 S! ex_reg2 [31:0] $end
$var reg 5 T! ex_wd [4:0] $end
$var reg 1 U! ex_wreg $end
$var reg 32 V! ex_imm [31:0] $end
$var reg 32 W! ex_branch_addr [31:0] $end
$var wire 8 #! stall_sign [7:0] $end
$upscope $end
$scope module ex0 $end
$var wire 1 N rst $end
$var wire 11 Z opcode_i [10:0] $end
$var wire 32 [ reg1_i [31:0] $end
$var wire 32 \ reg2_i [31:0] $end
$var wire 5 ^ wd_i [4:0] $end
$var wire 1 ] wreg_i $end
$var wire 32 _ imm_i [31:0] $end
$var wire 32 ` branch_addr_i [31:0] $end
$var reg 1 X! branch_enable_o $end
$var wire 32 x branch_addr_o [31:0] $end
$var reg 5 Y! wd_o [4:0] $end
$var reg 1 Z! wreg_o $end
$var reg 32 [! wdata_o [31:0] $end
$var reg 32 \! mem_addr [31:0] $end
$var wire 11 e opcode_o [10:0] $end
$var wire 8 #! stall_sign [7:0] $end
$upscope $end
$scope module ex_mem0 $end
$var wire 1 * clk $end
$var wire 1 N rst $end
$var wire 5 b ex_wd [4:0] $end
$var wire 1 a ex_wreg $end
$var wire 32 c ex_wdata [31:0] $end
$var wire 32 d ex_mem_addr [31:0] $end
$var wire 11 e ex_opcode_i [10:0] $end
$var reg 5 ]! mem_wd [4:0] $end
$var reg 1 ^! mem_wreg $end
$var reg 32 _! mem_wdata [31:0] $end
$var reg 32 `! mem_mem_addr [31:0] $end
$var reg 11 a! mem_opcode_o [10:0] $end
$var wire 8 #! stall_sign [7:0] $end
$upscope $end
$scope module mem0 $end
$var wire 1 * clk $end
$var wire 1 N rst $end
$var wire 5 g wd_i [4:0] $end
$var wire 1 f wreg_i $end
$var wire 32 h wdata_i [31:0] $end
$var wire 32 i mem_addr_i [31:0] $end
$var wire 11 j opcode_i [10:0] $end
$var reg 5 b! wd_o [4:0] $end
$var reg 1 c! wreg_o $end
$var reg 32 d! wdata_o [31:0] $end
$var wire 2 y if_or_mem [1:0] $end
$var wire 8 z mem_ctrl_data_i [7:0] $end
$var reg 8 e! mem_ctrl_data_o [7:0] $end
$var reg 2 f! mem_request [1:0] $end
$var reg 32 g! mem_addr [31:0] $end
$var reg 1 h! mem_stall_request $end
$var wire 8 #! stall_sign [7:0] $end
$var reg 4 i! state [3:0] $end
$var reg 1 j! mem_done $end
$upscope $end
$scope module mem_wb0 $end
$var wire 1 * clk $end
$var wire 1 N rst $end
$var wire 5 l mem_wd [4:0] $end
$var wire 1 k mem_wreg $end
$var wire 32 m mem_wdata [31:0] $end
$var reg 5 k! wb_wd [4:0] $end
$var reg 1 l! wb_wreg $end
$var reg 32 m! wb_wdata [31:0] $end
$var wire 8 #! stall_sign [7:0] $end
$upscope $end
$scope module mem_ctrl0 $end
$var wire 1 N rst $end
$var wire 1 { if_request $end
$var wire 32 | if_addr [31:0] $end
$var wire 2 } mem_request [1:0] $end
$var wire 32 ~ mem_addr [31:0] $end
$var wire 8 !! cpu_data_i [7:0] $end
$var wire 8 z cpu_data_o [7:0] $end
$var reg 2 n! if_or_mem_o [1:0] $end
$var wire 8 3 ram_data_i [7:0] $end
$var reg 8 o! ram_data_o [7:0] $end
$var reg 32 p! ram_addr_o [31:0] $end
$var reg 1 q! ram_rw $end
$upscope $end
$scope module ctrl0 $end
$var wire 1 * clk $end
$var wire 1 N rst $end
$var wire 1 *! id_stall_request $end
$var wire 1 +! mem_stall_request $end
$var wire 1 w branch_stall_request $end
$var reg 8 r! stall_sign [7:0] $end
$upscope $end
$upscope $end
$scope module hci0 $end
$var wire 1 * clk $end
$var wire 1 s! rst $end
$var wire 1 % tx $end
$var wire 1 & rx $end
$var wire 1 7 active $end
$var reg 1 t! ram_wr $end
$var wire 17 : ram_a [16:0] $end
$var wire 8 8 ram_din [7:0] $end
$var wire 8 9 ram_dout [7:0] $end
$var wire 3 = io_sel [2:0] $end
$var wire 1 < io_en $end
$var wire 8 > io_din [7:0] $end
$var wire 8 ? io_dout [7:0] $end
$var wire 1 @ io_wr $end
$var wire 32 6 cpu_dbgreg_din [31:0] $end
$var reg 5 u! q_state [4:0] $end
$var reg 5 v! d_state [4:0] $end
$var reg 3 w! q_decode_cnt [2:0] $end
$var reg 3 x! d_decode_cnt [2:0] $end
$var reg 17 y! q_execute_cnt [16:0] $end
$var reg 17 z! d_execute_cnt [16:0] $end
$var reg 17 {! q_addr [16:0] $end
$var reg 17 |! d_addr [16:0] $end
$var reg 2 }! q_err_code [1:0] $end
$var reg 2 ~! d_err_code [1:0] $end
$var reg 8 !" q_tx_data [7:0] $end
$var reg 8 "" d_tx_data [7:0] $end
$var reg 1 #" q_wr_en $end
$var reg 1 $" d_wr_en $end
$var reg 1 %" rd_en $end
$var wire 8 &" rd_data [7:0] $end
$var wire 1 '" rx_empty $end
$var wire 1 (" tx_full $end
$var wire 1 )" parity_err $end
$var reg 1 *" io_in_rd_en $end
$var reg 1 +" q_io_in_wr_en $end
$var reg 1 ," d_io_in_wr_en $end
$var reg 8 -" q_io_in_wr_data [7:0] $end
$var reg 8 ." d_io_in_wr_data [7:0] $end
$var wire 8 /" io_in_rd_data [7:0] $end
$var wire 1 0" io_in_empty $end
$var wire 1 1" io_in_full $end
$var reg 1 2" q_io_en $end
$var reg 8 3" q_io_dout [7:0] $end
$var reg 8 4" d_io_dout [7:0] $end
$var reg 32 5" q_cpu_cycle_cnt [31:0] $end
$var wire 32 6" d_cpu_cycle_cnt [31:0] $end
$var parameter 32 7" SYS_CLK_FREQ [31:0] $end
$var parameter 32 8" RAM_ADDR_WIDTH [31:0] $end
$var parameter 32 9" BAUD_RATE [31:0] $end
$var parameter 8 :" OP_ECHO [7:0] $end
$var parameter 8 ;" OP_CPU_REG_RD [7:0] $end
$var parameter 8 <" OP_CPU_REG_WR [7:0] $end
$var parameter 8 =" OP_DBG_BRK [7:0] $end
$var parameter 8 >" OP_DBG_RUN [7:0] $end
$var parameter 8 ?" OP_IO_IN [7:0] $end
$var parameter 8 @" OP_QUERY_DBG_BRK [7:0] $end
$var parameter 8 A" OP_QUERY_ERR_CODE [7:0] $end
$var parameter 8 B" OP_MEM_RD [7:0] $end
$var parameter 8 C" OP_MEM_WR [7:0] $end
$var parameter 8 D" OP_DISABLE [7:0] $end
$var parameter 32 E" DBG_UART_PARITY_ERR [31:0] $end
$var parameter 32 F" DBG_UNKNOWN_OPCODE [31:0] $end
$var parameter 5 G" S_DISABLED [4:0] $end
$var parameter 5 H" S_DECODE [4:0] $end
$var parameter 5 I" S_ECHO_STG_0 [4:0] $end
$var parameter 5 J" S_ECHO_STG_1 [4:0] $end
$var parameter 5 K" S_IO_IN_STG_0 [4:0] $end
$var parameter 5 L" S_IO_IN_STG_1 [4:0] $end
$var parameter 5 M" S_CPU_REG_RD_STG0 [4:0] $end
$var parameter 5 N" S_CPU_REG_RD_STG1 [4:0] $end
$var parameter 5 O" S_QUERY_ERR_CODE [4:0] $end
$var parameter 5 P" S_MEM_RD_STG_0 [4:0] $end
$var parameter 5 Q" S_MEM_RD_STG_1 [4:0] $end
$var parameter 5 R" S_MEM_WR_STG_0 [4:0] $end
$var parameter 5 S" S_MEM_WR_STG_1 [4:0] $end
$var parameter 5 T" S_DISABLE [4:0] $end
$var parameter 32 U" IO_IN_BUF_WIDTH [31:0] $end
$scope module io_in_fifo $end
$var wire 1 * clk $end
$var wire 1 s! reset $end
$var wire 1 V" rd_en $end
$var wire 1 W" wr_en $end
$var wire 8 X" wr_data [7:0] $end
$var wire 8 /" rd_data [7:0] $end
$var wire 1 1" full $end
$var wire 1 0" empty $end
$var reg 10 Y" q_rd_ptr [9:0] $end
$var wire 10 Z" d_rd_ptr [9:0] $end
$var reg 10 [" q_wr_ptr [9:0] $end
$var wire 10 \" d_wr_ptr [9:0] $end
$var reg 1 ]" q_empty $end
$var wire 1 ^" d_empty $end
$var reg 1 _" q_full $end
$var wire 1 `" d_full $end
$var wire 8 a" d_data [7:0] $end
$var wire 1 b" rd_en_prot $end
$var wire 1 c" wr_en_prot $end
$var wire 10 d" addr_bits_wide_1 [9:0] $end
$var parameter 32 e" DATA_BITS [31:0] $end
$var parameter 32 f" ADDR_BITS [31:0] $end
$upscope $end
$scope module uart_blk $end
$var wire 1 * clk $end
$var wire 1 s! reset $end
$var wire 1 & rx $end
$var wire 8 g" tx_data [7:0] $end
$var wire 1 h" rd_en $end
$var wire 1 i" wr_en $end
$var wire 1 % tx $end
$var wire 8 &" rx_data [7:0] $end
$var wire 1 '" rx_empty $end
$var wire 1 (" tx_full $end
$var wire 1 )" parity_err $end
$var wire 1 j" baud_clk_tick $end
$var wire 8 k" rx_fifo_wr_data [7:0] $end
$var wire 1 l" rx_done_tick $end
$var wire 1 m" rx_parity_err $end
$var wire 8 n" tx_fifo_rd_data [7:0] $end
$var wire 1 o" tx_done_tick $end
$var wire 1 p" tx_fifo_empty $end
$var reg 1 q" q_rx_parity_err $end
$var wire 1 r" d_rx_parity_err $end
$var parameter 32 s" SYS_CLK_FREQ [31:0] $end
$var parameter 32 t" BAUD_RATE [31:0] $end
$var parameter 32 u" DATA_BITS [31:0] $end
$var parameter 32 v" STOP_BITS [31:0] $end
$var parameter 32 w" PARITY_MODE [31:0] $end
$var parameter 32 x" BAUD_CLK_OVERSAMPLE_RATE [31:0] $end
$scope module uart_baud_clk_blk $end
$var wire 1 * clk $end
$var wire 1 s! reset $end
$var wire 1 j" baud_clk_tick $end
$var reg 16 y" q_cnt [15:0] $end
$var wire 16 z" d_cnt [15:0] $end
$var parameter 32 {" SYS_CLK_FREQ [31:0] $end
$var parameter 32 |" BAUD [31:0] $end
$var parameter 32 }" BAUD_CLK_OVERSAMPLE_RATE [31:0] $end
$var parameter 16 ~" CLKS_PER_OVERSAMPLE_TICK [15:0] $end
$upscope $end
$scope module uart_rx_blk $end
$var wire 1 * clk $end
$var wire 1 s! reset $end
$var wire 1 j" baud_clk_tick $end
$var wire 1 & rx $end
$var wire 8 k" rx_data [7:0] $end
$var wire 1 l" rx_done_tick $end
$var wire 1 m" parity_err $end
$var reg 5 !# q_state [4:0] $end
$var reg 5 "# d_state [4:0] $end
$var reg 4 ## q_oversample_tick_cnt [3:0] $end
$var reg 4 $# d_oversample_tick_cnt [3:0] $end
$var reg 8 %# q_data [7:0] $end
$var reg 8 &# d_data [7:0] $end
$var reg 3 '# q_data_bit_idx [2:0] $end
$var reg 3 (# d_data_bit_idx [2:0] $end
$var reg 1 )# q_done_tick $end
$var reg 1 *# d_done_tick $end
$var reg 1 +# q_parity_err $end
$var reg 1 ,# d_parity_err $end
$var reg 1 -# q_rx $end
$var parameter 32 .# DATA_BITS [31:0] $end
$var parameter 32 /# STOP_BITS [31:0] $end
$var parameter 32 0# PARITY_MODE [31:0] $end
$var parameter 32 1# BAUD_CLK_OVERSAMPLE_RATE [31:0] $end
$var parameter 6 2# STOP_OVERSAMPLE_TICKS [5:0] $end
$var parameter 5 3# S_IDLE [4:0] $end
$var parameter 5 4# S_START [4:0] $end
$var parameter 5 5# S_DATA [4:0] $end
$var parameter 5 6# S_PARITY [4:0] $end
$var parameter 5 7# S_STOP [4:0] $end
$upscope $end
$scope module uart_tx_blk $end
$var wire 1 * clk $end
$var wire 1 s! reset $end
$var wire 1 j" baud_clk_tick $end
$var wire 1 8# tx_start $end
$var wire 8 n" tx_data [7:0] $end
$var wire 1 o" tx_done_tick $end
$var wire 1 % tx $end
$var reg 5 9# q_state [4:0] $end
$var reg 5 :# d_state [4:0] $end
$var reg 4 ;# q_baud_clk_tick_cnt [3:0] $end
$var reg 4 <# d_baud_clk_tick_cnt [3:0] $end
$var reg 8 =# q_data [7:0] $end
$var reg 8 ># d_data [7:0] $end
$var reg 3 ?# q_data_bit_idx [2:0] $end
$var reg 3 @# d_data_bit_idx [2:0] $end
$var reg 1 A# q_parity_bit $end
$var reg 1 B# d_parity_bit $end
$var reg 1 C# q_tx $end
$var reg 1 D# d_tx $end
$var reg 1 E# q_tx_done_tick $end
$var reg 1 F# d_tx_done_tick $end
$var parameter 32 G# DATA_BITS [31:0] $end
$var parameter 32 H# STOP_BITS [31:0] $end
$var parameter 32 I# PARITY_MODE [31:0] $end
$var parameter 32 J# BAUD_CLK_OVERSAMPLE_RATE [31:0] $end
$var parameter 6 K# STOP_OVERSAMPLE_TICKS [5:0] $end
$var parameter 5 L# S_IDLE [4:0] $end
$var parameter 5 M# S_START [4:0] $end
$var parameter 5 N# S_DATA [4:0] $end
$var parameter 5 O# S_PARITY [4:0] $end
$var parameter 5 P# S_STOP [4:0] $end
$upscope $end
$scope module uart_rx_fifo $end
$var wire 1 * clk $end
$var wire 1 s! reset $end
$var wire 1 h" rd_en $end
$var wire 1 l" wr_en $end
$var wire 8 k" wr_data [7:0] $end
$var wire 8 &" rd_data [7:0] $end
$var wire 1 Q# full $end
$var wire 1 '" empty $end
$var reg 3 R# q_rd_ptr [2:0] $end
$var wire 3 S# d_rd_ptr [2:0] $end
$var reg 3 T# q_wr_ptr [2:0] $end
$var wire 3 U# d_wr_ptr [2:0] $end
$var reg 1 V# q_empty $end
$var wire 1 W# d_empty $end
$var reg 1 X# q_full $end
$var wire 1 Y# d_full $end
$var wire 8 Z# d_data [7:0] $end
$var wire 1 [# rd_en_prot $end
$var wire 1 \# wr_en_prot $end
$var wire 3 ]# addr_bits_wide_1 [2:0] $end
$var parameter 32 ^# DATA_BITS [31:0] $end
$var parameter 32 _# ADDR_BITS [31:0] $end
$upscope $end
$scope module uart_tx_fifo $end
$var wire 1 * clk $end
$var wire 1 s! reset $end
$var wire 1 o" rd_en $end
$var wire 1 i" wr_en $end
$var wire 8 g" wr_data [7:0] $end
$var wire 8 n" rd_data [7:0] $end
$var wire 1 (" full $end
$var wire 1 p" empty $end
$var reg 10 `# q_rd_ptr [9:0] $end
$var wire 10 a# d_rd_ptr [9:0] $end
$var reg 10 b# q_wr_ptr [9:0] $end
$var wire 10 c# d_wr_ptr [9:0] $end
$var reg 1 d# q_empty $end
$var wire 1 e# d_empty $end
$var reg 1 f# q_full $end
$var wire 1 g# d_full $end
$var wire 8 h# d_data [7:0] $end
$var wire 1 i# rd_en_prot $end
$var wire 1 j# wr_en_prot $end
$var wire 10 k# addr_bits_wide_1 [9:0] $end
$var parameter 32 l# DATA_BITS [31:0] $end
$var parameter 32 m# ADDR_BITS [31:0] $end
$upscope $end
$upscope $end
$upscope $end
$upscope $end
$upscope $end
$enddefinitions $end
#0
$dumpvars
0!
bx !!
bx !"
b1 !#
1"
z"!
b0 ""
b1 "#
0#
b0 #!
x#"
b0 ##
1$
bx $!
0$"
b0 $#
1%
0%!
0%"
b0 %#
z&
b0 &!
bx &"
b0 &#
0'
x'!
x'"
b0 '#
1(
bx (!
x("
b0 (#
1)
bx )!
0)"
0)#
0*
0*!
0*"
0*#
b0 +
0+!
x+"
0+#
b0 ,
0,!
0,"
0,#
0-
b0 -!
bx -"
1-#
1.
bx .!
b0 ."
b1000 .#
b0 /
bx /!
bx /"
b1 /#
bx 0
bx 0!
x0"
b1 0#
b0 1
bx 1!
x1"
b10000 1#
02
bx 2!
x2"
b10000 2#
bx 3
x3!
bx 3"
b1 3#
b0 4
bx 4!
b0 4"
b10 4#
15
bx 5!
bx 5"
b100 5#
bz 6
bx 6!
bx 6"
b1000 6#
x7
x7!
b101111101011110000100000000 7"
b10000 7#
bx 8
bx 8!
b10001 8"
x8#
bx 9
bx 9!
b11100001000000000 9"
b1 9#
bx :
bx :!
b0 :"
b1 :#
0;
bx ;!
b1 ;"
b0 ;#
0<
bx <!
b10 <"
b0 <#
b0 =
x=!
b11 ="
b0 =#
b0 >
bx >!
b100 >"
b0 >#
bx ?
bx ?!
b101 ?"
b0 ?#
0@
bx @!
b111 @"
b0 @#
0A
b0 A!
b1000 A"
0A#
b1 B
b0 B!
b1001 B"
0B#
b101111101011110000100000000 C
0C!
b1010 C"
1C#
b11100001000000000 D
0D!
b1011 D"
1D#
b10001 E
b0 E!
b0 E"
0E#
1F
b0 F!
b1 F"
0F#
0G
b0 G!
b0 G"
b1000 G#
bx H
b0 H!
b1 H"
b1 H#
b10001 I
b0 I!
b10 I"
b1 I#
bx J
b0 J!
b11 J"
b10000 J#
b100000000000000000 K
0K!
b100 K"
b10000 K#
b10001 L
b0 L!
b101 L"
b1 L#
b1000 M
b0 M!
b110 M"
b10 M#
1N
0N!
b111 N"
b100 N#
bx O
bx O!
b1000 O"
b1000 O#
bx P
0P!
b1001 P"
b10000 P#
bx Q
bx Q!
b1010 Q"
xQ#
bx R
bx R!
b1011 R"
bx R#
b0 S
bx S!
b1100 S"
bx S#
b0 T
bx T!
b10000 T"
bx T#
b0 U
xU!
b1010 U"
bx U#
0V
bx V!
0V"
xV#
b0 W
bx W!
xW"
xW#
b0 X
0X!
bx X"
xX#
b0 Y
b0 Y!
bx Y"
xY#
bx Z
0Z!
bx Z"
bx Z#
bx [
b0 [!
bx ["
0[#
bx \
b0 \!
bx \"
0\#
x]
bx ]!
x]"
b1 ]#
bx ^
x^!
x^"
b1000 ^#
bx _
bx _!
x_"
b11 _#
bx `
bx `!
x`"
bx `#
0a
bx a!
bx a"
bx a#
b0 b
bx b!
0b"
bx b#
b0 c
xc!
xc"
bx c#
b0 d
bx d!
b1 d"
xd#
bx e
bx e!
b1000 e"
xe#
xf
bx f!
b1010 f"
xf#
bx g
bx g!
bx g"
xg#
bx h
0h!
0h"
bx h#
bx i
bx i!
xi"
0i#
bx j
xj!
0j"
xj#
xk
bx k!
b0 k"
b1 k#
bx l
xl!
0l"
b1000 l#
bx m
bx m!
0m"
b1010 m#
xn
b0 n!
bx n"
bx o
b0 o!
0o"
bx p
b0 p!
xp"
0q
0q!
0q"
0r
b0 r!
0r"
b0 s
1s!
b101111101011110000100000000 s"
b0 t
0t!
b11100001000000000 t"
b0 u
bx u!
b1000 u"
b0 v
bx v!
b1 v"
0w
bx w!
b1 w"
bx x
bx x!
b10000 x"
b0 y
bx y!
b0 y"
bx z
bx z!
b1 z"
x{
bx {!
b101111101011110000100000000 {"
bx |
bx |!
b11100001000000000 |"
bx }
bx }!
b10000 }"
bx ~
bx ~!
b110110 ~"
$end
#1000
1!
b0 !!
b0 !"
1#
0#"
bx &"
0'!
1'"
0("
1*
0+"
b0 ,
b0 -"
bx /"
b110111 0
10"
01"
b10000000 2!
02"
b110111 3
03!
b0 3"
b0 4!
b0 5!
b0 5"
b0 6"
17
07!
b110111 8
08#
b0 :
b0 :!
b0 ;!
b0 <!
b0 >!
b0 ?
b0 ?!
b0 @!
0A
0C!
0D!
b0 E!
b0 F!
b0 G!
b110111 H
b0 H!
b0 I!
b0 J
b0 J!
0K!
b0 L!
b0 M!
0N!
b11111111111111111111111111111100 O
b100 O!
b0 P
b0 Q
b0 Q!
0Q#
b0 R
b0 R!
b0 R#
b0 S!
b0 S#
b0 T!
b0 T#
0U!
b0 U#
b0 V!
1V#
b0 W!
0W"
1W#
0X!
b0 X"
0X#
b0 Y!
b0 Y"
0Y#
b0 Z
0Z!
b0 Z"
b0 [
b0 [!
b0 ["
0[#
b0 \
b0 \!
b0 \"
0\#
0]
b0 ]!
1]"
b0 ^
0^!
1^"
b0 _
b0 _!
0_"
b0 `
b0 `!
0`"
b0 `#
b0 a!
b0 a#
b0 b!
0b"
b0 b#
0c!
0c"
b0 c#
b0 d!
1d#
b0 e
b0 e!
1e#
0f
b0 f!
0f#
b0 g
b0 g!
b0 g"
0g#
b0 h
0h!
b0 i
b0 i!
0i"
0i#
b0 j
0j!
0j#
0k
b0 k!
b0 l
0l!
b0 m
b0 m!
0n
b0 n!
bx n"
b0 o
b0 o!
b0 p
b0 p!
1p"
0q!
0t!
b1 u!
b1 v!
b0 w!
b0 x
b0 x!
b0 y!
b110111 z
b0 z!
0{
b0 {!
b0 |
b0 |!
b0 }
b0 }!
b0 ~
b0 ~!
#2000
0!
0#
0*
#3000
1!
1#
1*
b10000000 2!
#4000
0!
0#
0*
#5000
1!
1#
1*
b10000000 2!
#6000
0!
0#
0*
#7000
1!
1#
1*
b10000000 2!
#8000
0!
0#
0*
#9000
1!
1#
1*
b10000000 2!
#10000
0!
0#
0*
#11000
1!
1#
1*
b10000000 2!
#12000
0!
0#
0*
#13000
1!
1#
1*
b10000000 2!
#14000
0!
0#
0*
#15000
1!
1#
1*
b10000000 2!
#16000
0!
0#
0*
#17000
1!
1#
1*
b10000000 2!
#18000
0!
0#
0*
#19000
1!
1#
1*
b10000000 2!
#20000
0!
0#
0*
#21000
1!
1#
1*
b10000000 2!
